command,mean,stddev,median,user,system,min,max,parameter_threads
/tmp/main samples/sample-switch.bmp gray.bmp 1,0.06830260021854839,0.02542661989069689,0.055517280025000004,0.016886058387096774,0.036060653548387105,0.053916768025000006,0.143527067025,1
/tmp/main samples/sample-switch.bmp gray.bmp 2,0.06809875981346153,0.010781274269847319,0.06922711002500001,0.019482394615384608,0.036002979230769235,0.05407211302500001,0.10401972702500001,2
/tmp/main samples/sample-switch.bmp gray.bmp 3,0.09057708328306452,0.028391046894178554,0.07170867802500001,0.02055960677419355,0.03724800838709678,0.06435323202500001,0.153832574025,3
/tmp/main samples/sample-switch.bmp gray.bmp 4,0.05692085950119047,0.004590876419452792,0.054959824025000006,0.02629227190476191,0.03573517428571429,0.05186405702500001,0.06864302802500001,4
/tmp/main samples/sample-switch.bmp gray.bmp 5,0.05833384610500001,0.0068071032545216565,0.054922850025,0.01752967,0.036247040000000015,0.051548420025,0.075514568025,5
/tmp/main samples/sample-switch.bmp gray.bmp 6,0.08621954083452382,0.022169848968744337,0.073581235025,0.018557105238095242,0.035637793333333334,0.066488770025,0.141804489025,6
/tmp/main samples/sample-switch.bmp gray.bmp 7,0.2120631824416667,0.08337594251037724,0.181344595025,0.02035821833333333,0.03437716833333333,0.12056054502500001,0.36125584802500005,7
/tmp/main samples/sample-switch.bmp gray.bmp 8,0.333288351825,0.043546726128612,0.32759270252500006,0.018333009999999997,0.036189559999999996,0.275356021025,0.38856544802500004,8
