command,mean,stddev,median,user,system,min,max,parameter_threads
.\main.exe samples/sample-switch.bmp gray.bmp 1,0.045136306324561414,0.002360139211463483,0.0446095765,0.0014062500000000002,0.0028248355263157895,0.0416117765,0.05450487650000001,1
.\main.exe samples/sample-switch.bmp gray.bmp 2,0.040862989614754104,0.00232711040602399,0.040298176500000005,0.0004380122950819672,0.0018660348360655737,0.0377503765,0.0477837765,2
.\main.exe samples/sample-switch.bmp gray.bmp 3,0.03878564157936509,0.002015711447776285,0.0382704765,0.00021205357142857142,0.0020597718253968253,0.03617387650000001,0.045070276500000006,3
.\main.exe samples/sample-switch.bmp gray.bmp 4,0.038644060106557375,0.0030182526337921827,0.037994176500000004,0.0021900614754098366,0.003157018442622952,0.031881476500000006,0.0546185765,4
.\main.exe samples/sample-switch.bmp gray.bmp 5,0.03935989396031746,0.0018491399370919135,0.0390672765,0.0006361607142857143,0.003183283730158731,0.0368661765,0.0483643765,5
.\main.exe samples/sample-switch.bmp gray.bmp 6,0.03939896856349206,0.00188649619522898,0.0393370765,0.0012723214285714289,0.003431299603174604,0.036114476500000006,0.0448196765,6
.\main.exe samples/sample-switch.bmp gray.bmp 7,0.03869005544736842,0.0023029270456108716,0.0379984765,0.0021093750000000006,0.0023437500000000003,0.0356272765,0.045897476500000006,7
.\main.exe samples/sample-switch.bmp gray.bmp 8,0.03845555034615384,0.0029241128929491655,0.037707676499999995,0.0016442307692307696,0.003448317307692309,0.0354578765,0.0548027765,8
