command,mean,stddev,median,user,system,min,max,parameter
/tmp/main samples/sample-switch.bmp gray.bmp 1,2.818957024595,0.6118273047232086,2.5862075366950004,0.15854350500000003,0.24045105499999994,2.007551985695,3.939421760695,1
/tmp/main samples/sample-switch.bmp gray.bmp 2,3.5452357423949996,1.0141150901472522,3.464358234195,0.14990250500000002,0.254137155,2.523869607695,5.170453855695,2
/tmp/main samples/sample-switch.bmp gray.bmp 3,2.973758514295,0.5707206294081019,2.582489093695,0.16345110499999999,0.24288465499999998,2.520375956695,3.951785893695,3
/tmp/main samples/sample-switch.bmp gray.bmp 4,2.7931291331950003,0.265091419511904,2.7461658151950004,0.159430505,0.25282525499999997,2.512208288695,3.336922555695,4
/tmp/main samples/sample-switch.bmp gray.bmp 5,3.178948915495,1.0625089456853642,2.579492943695,0.158573005,0.2500603549999999,2.534879467695,5.190350550695,5
/tmp/main samples/sample-switch.bmp gray.bmp 6,2.911079475595,0.6160871382001869,2.7400884366950002,0.15605750499999999,0.25162495499999993,2.523624659695,4.538405127695,6
/tmp/main samples/sample-switch.bmp gray.bmp 7,2.6135748208950003,0.08619054856229723,2.578755338195,0.146661705,0.260999555,2.524081742695,2.749729622695,7
/tmp/main samples/sample-switch.bmp gray.bmp 8,2.954003772194999,1.028825381040002,2.5694411061949998,0.160993605,0.24721005499999998,2.543112447695,5.844236809695,8
